<svg xmlns="http://www.w3.org/2000/svg" width="90.332" height="102" viewBox="17.75 5.113 90.332 102" enable-background="new 17.75 5.113 90.332 102">
    <path d="M102.365 41.598h-2.449v-11.819l-.021-.223c-.004-.469-.154-.93-.475-1.295l-19.666-22.464-.016-.014c-.117-.131-.254-.24-.398-.334l-.131-.078c-.125-.068-.258-.125-.395-.166l-.107-.035c-.148-.035-.303-.057-.459-.057h-48.332c-2.207 0-4 1.795-4 4v32.484h-2.449c-3.156 0-5.717 2.559-5.717 5.717v29.73c0 3.156 2.561 5.717 5.717 5.717h2.449v20.352c0 2.205 1.793 4 4 4h66c2.205 0 4-1.795 4-4v-20.351h2.449c3.158 0 5.717-2.561 5.717-5.717v-29.73c0-3.159-2.559-5.717-5.717-5.717zm-72.449-32.485h46.332v20.465c0 1.105.896 2 2 2h17.668v10.02h-66v-32.485zm33.879 62.051c3.336 0 5.17-2.338 5.17-7.301v-16.177h6.342v15.764c0 8.672-4.379 12.803-11.721 12.803-7.088 0-11.26-3.922-11.26-12.889v-15.678h6.383v16.178c0 4.837 1.834 7.3 5.086 7.3zm-37.535-9.01c0-9.592 6.842-14.928 15.348-14.928 3.295 0 5.795.668 6.922 1.252l-1.293 5.045c-1.293-.541-3.084-1.041-5.338-1.041-5.047 0-8.967 3.043-8.967 9.297 0 5.631 3.338 9.176 9.008 9.176 1.918 0 4.047-.418 5.297-.918l.958 4.963c-1.168.584-3.793 1.209-7.213 1.209-9.718 0-14.722-6.047-14.722-14.055zm69.656 39.875h-66v-19.267h66v19.267zm2.83-26.236h-17.932v-28.107h17.348v5.213h-10.969v5.838h10.344v5.172h-10.344v6.672h11.553v5.212z"/>
</svg>
