<svg xmlns="http://www.w3.org/2000/svg" width="90.332" height="102" viewBox="18.592 12.037 90.332 102" enable-background="new 18.592 12.037 90.332 102">
    <path d="M87.734 59.544c-1.277 0-2.143.127-2.597.25v8.195c.538.123 1.194.166 2.101.166 3.34 0 5.398-1.688 5.398-4.533.001-2.555-1.771-4.078-4.902-4.078zm-23.948 0c-1.276 0-2.143.127-2.597.25v8.195c.538.123 1.197.166 2.104.166 3.34 0 5.396-1.688 5.396-4.533-.001-2.555-1.77-4.078-4.903-4.078zm39.421-11.023h-2.449v-11.818l-.021-.223c-.004-.469-.154-.93-.475-1.295l-19.666-22.464-.016-.014c-.117-.131-.254-.24-.398-.334l-.131-.078c-.125-.068-.258-.125-.395-.166l-.107-.035c-.148-.035-.303-.057-.459-.057h-48.332c-2.207 0-4 1.795-4 4v32.484h-2.449c-3.157 0-5.717 2.559-5.717 5.717v29.73c0 3.156 2.56 5.717 5.717 5.717h2.449v20.352c0 2.205 1.793 4 4 4h66c2.205 0 4-1.795 4-4v-20.351h2.449c3.157 0 5.717-2.561 5.717-5.717v-29.73c0-3.159-2.56-5.718-5.717-5.718zm-72.449-32.484h46.332v20.465c0 1.105.896 2 2 2h17.668v10.02h-66v-32.485zm44.156 47.421c0 2.721-.909 5.029-2.557 6.594-2.142 2.02-5.313 2.926-9.023 2.926-.824 0-1.565-.039-2.145-.123v9.93h-6.221v-27.4c1.938-.33 4.657-.578 8.488-.578 3.873 0 6.636.74 8.489 2.227 1.774 1.397 2.969 3.705 2.969 6.424zm-45.75 5.854c0-9.479 6.76-14.752 15.165-14.752 3.256 0 5.728.66 6.839 1.234l-1.277 4.986c-1.274-.537-3.046-1.027-5.272-1.027-4.987 0-8.86 3.004-8.86 9.186 0 5.563 3.299 9.064 8.903 9.064 1.893 0 3.996-.41 5.229-.906l.95 4.904c-1.154.578-3.751 1.195-7.132 1.195-9.596 0-14.545-5.972-14.545-13.884zm67.594 39.641h-66v-19.267h66v19.267zm-.452-38.901c-2.142 2.02-5.315 2.926-9.023 2.926-.825 0-1.565-.039-2.145-.123v9.93h-6.221v-27.4c1.938-.33 4.655-.578 8.49-.578 3.871 0 6.634.74 8.485 2.227 1.774 1.398 2.969 3.707 2.969 6.426s-.906 5.027-2.555 6.592z"/>
</svg>
