<svg xmlns="http://www.w3.org/2000/svg" width="90.332" height="102" viewBox="17.834 12.463 90.332 102" enable-background="new 17.834 12.463 90.332 102">
    <path d="M102.449 48.948h-2.449v-11.819l-.021-.223c-.004-.469-.154-.93-.475-1.295l-19.666-22.464-.016-.014c-.117-.131-.254-.24-.398-.334l-.131-.078c-.125-.068-.258-.125-.395-.166l-.107-.035c-.148-.035-.303-.057-.459-.057h-48.332c-2.207 0-4 1.795-4 4v32.484h-2.449c-3.157 0-5.717 2.559-5.717 5.717v29.73c0 3.156 2.56 5.717 5.717 5.717h2.449v20.352c0 2.205 1.793 4 4 4h66c2.205 0 4-1.795 4-4v-20.351h2.449c3.157 0 5.717-2.561 5.717-5.717v-29.73c0-3.159-2.56-5.717-5.717-5.717zm-72.449-32.485h46.332v20.465c0 1.105.896 2 2 2h17.668v10.02h-66v-32.485zm19.73 37.865h7.754l2.616 5.451c.885 1.815 1.551 3.278 2.26 4.962h.089c.707-1.905 1.284-3.235 2.037-4.962l2.527-5.451h7.711l-8.42 14.578 8.863 15.289h-7.8l-2.702-5.406c-1.108-2.083-1.818-3.633-2.66-5.362h-.089c-.62 1.729-1.373 3.279-2.303 5.362l-2.481 5.406h-7.712l8.642-15.11-8.332-14.757zm-25.437 5.672v-5.672h22.953v5.672h-8.153v24.194h-6.778v-24.194h-8.022zm71.707 49.379h-66v-19.267h66v19.267zm3.764-49.379h-8.154v24.194h-6.78v-24.194h-8.021v-5.672h22.955v5.672z"/>
</svg>
