<svg xmlns="http://www.w3.org/2000/svg" width="90.332" height="102" viewBox="18.592 12.536 90.332 102" enable-background="new 18.592 12.536 90.332 102">
    <path d="M91.637 60.422c-1.166 0-1.957.111-2.371.226v7.488c.488.113 1.092.151 1.921.151 3.047 0 4.927-1.543 4.927-4.14 0-2.333-1.618-3.725-4.477-3.725zm11.57-11.401h-2.449v-11.818l-.021-.223c-.004-.469-.154-.93-.475-1.295l-19.666-22.465-.016-.014c-.117-.131-.254-.24-.398-.334l-.131-.078c-.125-.068-.258-.125-.395-.166l-.107-.035c-.148-.035-.303-.057-.459-.057h-48.332c-2.207 0-4 1.795-4 4v32.484h-2.449c-3.157 0-5.717 2.559-5.717 5.717v29.73c0 3.156 2.56 5.717 5.717 5.717h2.449v20.352c0 2.205 1.793 4 4 4h66c2.205 0 4-1.795 4-4v-20.351h2.449c3.157 0 5.717-2.561 5.717-5.717v-29.73c0-3.158-2.56-5.717-5.717-5.717zm-72.449-32.484h46.332v20.465c0 1.105.896 2 2 2h17.668v10.02h-66v-32.485zm47.859 39.747v25.36h-5.756v-25.36h5.756zm-27.961 4.739v-4.739h18.401v3.31l-11.815 17.159v.148h12.003v4.742h-19.717v-3.085l12.078-17.384v-.151h-10.95zm-22.768 17.458c-2.332-2.181-3.611-5.492-3.575-9.218.038-8.429 6.172-13.244 14.486-13.244 3.275 0 5.798.639 7.038 1.24l-1.204 4.59c-1.393-.601-3.124-1.089-5.908-1.089-4.777 0-8.392 2.71-8.392 8.201 0 5.23 3.275 8.317 7.979 8.317 1.317 0 2.37-.151 2.822-.378v-5.304h-3.914v-4.479h9.444v13.358c-1.768.602-5.116 1.428-8.466 1.428-4.628.002-7.978-1.163-10.31-3.422zm68.87 30.972h-66v-19.268h66v19.268zm2.705-39.436c-1.957 1.843-4.852 2.671-8.24 2.671-.752 0-1.431-.038-1.957-.112v9.067h-5.682v-25.023c1.77-.3 4.254-.526 7.752-.526 3.537 0 6.057.678 7.752 2.033 1.616 1.278 2.71 3.384 2.71 5.87 0 2.482-.83 4.589-2.335 6.02z"/>
</svg>
