<svg xmlns="http://www.w3.org/2000/svg" width="90.332" height="102" viewBox="16.871 5.02 90.332 102" enable-background="new 16.871 5.02 90.332 102">
    <path d="M101.486 41.505h-2.449v-11.818l-.021-.223c-.004-.469-.154-.93-.475-1.295l-19.666-22.465-.016-.014c-.117-.131-.254-.24-.398-.334l-.131-.078c-.125-.068-.258-.125-.395-.166l-.107-.035c-.148-.035-.303-.057-.459-.057h-48.332c-2.207 0-4 1.795-4 4v32.484h-2.449c-3.156 0-5.717 2.559-5.717 5.717v29.73c0 3.156 2.561 5.717 5.717 5.717h2.449v20.352c0 2.205 1.793 4 4 4h66c2.205 0 4-1.795 4-4v-20.351h2.449c3.158 0 5.717-2.561 5.717-5.717v-29.73c0-3.159-2.558-5.717-5.717-5.717zm-72.449-32.484h46.332v20.465c0 1.105.896 2 2 2h17.668v10.02h-66v-32.485zm36.736 49.865v5.323h-10.39v11.635h-6.566v-28.935h17.686v5.364h-11.12v6.612l10.39.001zm-43.83 2.92c0-9.876 7.043-15.372 15.799-15.372 3.395 0 5.967.688 7.127 1.291l-1.332 5.191c-1.328-.556-3.176-1.072-5.492-1.072-5.195 0-9.232 3.135-9.232 9.574 0 5.796 3.434 9.445 9.273 9.445 1.975 0 4.166-.429 5.451-.944l.988 5.107c-1.201.602-3.908 1.246-7.426 1.246-10.001 0-15.156-6.224-15.156-14.466zm73.094 40.131h-66v-19.268h66v19.268zm.699-26.093l-.43-11.077c-.131-3.477-.258-7.686-.258-11.893h-.127c-.904 3.693-2.104 7.816-3.221 11.205l-3.52 11.292h-5.11l-3.092-11.207c-.945-3.39-1.93-7.512-2.615-11.29h-.088c-.174 3.907-.301 8.371-.514 11.979l-.516 10.991h-6.055l1.848-28.935h8.715l2.832 9.658c.902 3.349 1.805 6.954 2.447 10.346h.129c.816-3.349 1.803-7.171 2.748-10.389l3.092-9.615h8.541l1.59 28.935h-6.396z"/>
</svg>
