<svg xmlns="http://www.w3.org/2000/svg" width="90.332" height="102" viewBox="18.001 5.132 90.332 102" enable-background="new 18.001 5.132 90.332 102">
    <path d="M102.616 41.617h-2.449v-11.818l-.021-.223c-.004-.469-.154-.93-.475-1.295l-19.667-22.465-.016-.014c-.117-.131-.254-.24-.398-.334l-.131-.078c-.125-.068-.258-.125-.395-.166l-.107-.035c-.148-.035-.303-.057-.459-.057h-48.331c-2.207 0-4 1.795-4 4v32.484h-2.449c-3.157 0-5.717 2.559-5.717 5.717v29.73c0 3.156 2.56 5.717 5.717 5.717h2.449v20.352c0 2.205 1.793 4 4 4h66c2.205 0 4-1.795 4-4v-20.351h2.449c3.157 0 5.717-2.561 5.717-5.717v-29.73c0-3.158-2.56-5.717-5.717-5.717zm-6.449 60.432h-66v-19.268h66v19.268zm-54.195-26.822v-27.733c1.959-.336 4.712-.586 8.59-.586 3.92 0 6.714.754 8.59 2.254 1.793 1.418 3.002 3.754 3.002 6.506s-.917 5.086-2.585 6.672c-2.168 2.043-5.379 2.961-9.132 2.961-.834 0-1.584-.041-2.169-.125v10.051h-6.296zm41.789-5.338v5.338h-17.556v-28.108h6.38v22.77h11.176zm12.406-28.272h-66v-32.484h46.332v20.465c0 1.105.896 2 2 2h17.668v10.019zm-40.308 14.217c0-2.584-1.793-4.129-4.963-4.129-1.293 0-2.168.125-2.627.25v8.299c.542.125 1.209.168 2.127.168 3.377 0 5.463-1.709 5.463-4.588z"/>
</svg>
